
Program received signal SIGSEGV: Segmentation fault - invalid memory reference.

Backtrace for this error:
#0  0x7ff60b3518da
#1  0x7ff60b350ae3
#2  0x7ff60afa883f
#3  0x7ff60b0cdb0d
#4  0x55e990ea1560
#5  0x55e990eada63
#6  0x55e990ea040e
#7  0x7ff60af9509a
#8  0x55e990ea0449
#9  0xffffffffffffffff
--------------------------------------------------------------------------
Primary job  terminated normally, but 1 process returned
a non-zero exit code. Per user-direction, the job has been aborted.
--------------------------------------------------------------------------
--------------------------------------------------------------------------
mpirun noticed that process rank 0 with PID 0 on node instance-0 exited on signal 11 (Segmentation fault).
--------------------------------------------------------------------------
